﻿<?xml version="1.0" encoding="UTF-8"?>
<TestRun id="1dfe741f-9596-434d-9c93-6bf6e7f5b155" name="Peter.Jackson@05RNBW-NME3811A 2012-08-24 14:04:17" runUser="ZA\Peter.Jackson" xmlns="http://microsoft.com/schemas/VisualStudio/TeamTest/2010">
  <TestSettings name="Local" id="2c7220af-c5be-4fb3-a341-c50a89dbabaa">
    <Description>These are default test settings for a local test run.</Description>
    <Deployment enabled="false" runDeploymentRoot="Peter.Jackson_05RNBW-NME3811A 2012-08-24 14_04_17">
      <DeploymentItem filename="C:\Users\peter.jackson\Documents\Visual Studio 2010\Projects\1\golfus\golfus\packages\Newtonsoft.Json.4.5.8\lib\net40\Newtonsoft.Json.dll" />
      <DeploymentItem filename="C:\Users\peter.jackson\Documents\Visual Studio 2010\Projects\1\golfus\golfus\TestProject1\bin\Debug\log4net.dll" />
      <DeploymentItem filename="C:\Users\peter.jackson\Documents\Visual Studio 2010\Projects\1\golfus\golfus\golfus\bin\Debug\golfus.exe" />
      <DeploymentItem filename="C:\Users\peter.jackson\Documents\Visual Studio 2010\Projects\1\golfus\golfus\packages\clrzmq.2.2.5\lib\clrzmq-ext.dll" />
      <DeploymentItem filename="C:\Users\peter.jackson\Documents\Visual Studio 2010\Projects\1\golfus\golfus\packages\com.dstvo.gelf4net.1.0.4615.26243\lib\net40\Esilog.Gelf4net.dll" />
      <DeploymentItem filename="C:\Users\peter.jackson\Documents\Visual Studio 2010\Projects\1\golfus\golfus\packages\clrzmq.2.2.5\lib\clrzmq.dll" />
      <DeploymentItem filename="C:\Users\peter.jackson\Documents\Visual Studio 2010\Projects\1\golfus\golfus\packages\RabbitMQ.ServiceModel.2.8.4\lib\net30\RabbitMQ.ServiceModel.dll" />
      <DeploymentItem filename="C:\Users\peter.jackson\Documents\Visual Studio 2010\Projects\1\golfus\golfus\packages\RabbitMQ.Client.2.8.4\lib\net30\RabbitMQ.Client.dll" />
    </Deployment>
    <Execution>
      <TestTypeSpecific />
      <AgentRule name="Execution Agents">
      </AgentRule>
    </Execution>
  </TestSettings>
  <Times creation="2012-08-24T14:04:17.7790705+02:00" queuing="2012-08-24T14:04:18.6500705+02:00" start="2012-08-24T14:04:18.7500705+02:00" finish="2012-08-24T14:04:30.3850705+02:00" />
  <ResultSummary outcome="Error">
    <Counters total="1" executed="1" error="0" failed="0" timeout="0" aborted="1" inconclusive="0" passedButRunAborted="0" notRunnable="0" notExecuted="0" disconnected="0" warning="0" passed="0" completed="0" inProgress="0" pending="0" />
    <RunInfos>
      <RunInfo computerName="05RNBW-NME3811A" outcome="Error" timestamp="2012-08-24T14:04:30.3840705+02:00">
        <Text>Test host process exited unexpectedly.</Text>
      </RunInfo>
    </RunInfos>
  </ResultSummary>
  <TestDefinitions>
    <UnitTest name="ScorecardTest" storage="c:\users\peter.jackson\documents\visual studio 2010\projects\1\golfus\golfus\testproject1\bin\debug\testproject1.dll" id="9e2674c0-fda2-ae21-a8bb-f66a6c531424">
      <Execution id="423c672d-3824-444c-8848-8f74180792ba" />
      <TestMethod codeBase="C:/Users/peter.jackson/Documents/Visual Studio 2010/Projects/1/golfus/golfus/TestProject1/bin/Debug/TestProject1.DLL" adapterTypeName="Microsoft.VisualStudio.TestTools.TestTypes.Unit.UnitTestAdapter, Microsoft.VisualStudio.QualityTools.Tips.UnitTest.Adapter, Version=10.0.0.0, Culture=neutral, PublicKeyToken=b03f5f7f11d50a3a" className="TestProject1.Service1Test, TestProject1, Version=1.0.0.0, Culture=neutral, PublicKeyToken=null" name="ScorecardTest" />
    </UnitTest>
  </TestDefinitions>
  <TestLists>
    <TestList name="Results Not in a List" id="8c84fa94-04c1-424b-9868-57a2d4851a1d" />
    <TestList name="All Loaded Results" id="19431567-8539-422a-85d7-44ee4e166bda" />
  </TestLists>
  <TestEntries>
    <TestEntry testId="9e2674c0-fda2-ae21-a8bb-f66a6c531424" executionId="423c672d-3824-444c-8848-8f74180792ba" testListId="8c84fa94-04c1-424b-9868-57a2d4851a1d" />
  </TestEntries>
  <Results>
    <UnitTestResult executionId="423c672d-3824-444c-8848-8f74180792ba" testId="9e2674c0-fda2-ae21-a8bb-f66a6c531424" testName="ScorecardTest" computerName="05RNBW-NME3811A" duration="00:00:11.5400000" startTime="2012-08-24T14:04:18.8440705+02:00" endTime="2012-08-24T14:04:30.3840705+02:00" testType="13cdc9d9-ddb5-4fa4-a97d-d965ccfc6d4b" outcome="Aborted" testListId="8c84fa94-04c1-424b-9868-57a2d4851a1d" relativeResultsDirectory="423c672d-3824-444c-8848-8f74180792ba">
    </UnitTestResult>
  </Results>
</TestRun>